SISO/simulation/qsim/siso.msim.vcd
$comment
	File created using the following command:
		vcd file siso.msim.vcd -direction
$end
$date
	Sun Nov 02 12:52:59 2025
$end
$version
	ModelSim Version 10.1d
$end
$timescale
	1ps
$end
$scope module siso_vlg_vec_tst $end
$var reg 1 ! clk $end
$var reg 1 " sin $end
$var wire 1 # q [3] $end
$var wire 1 $ q [2] $end
$var wire 1 % q [1] $end
$var wire 1 & q [0] $end
$var wire 1 ' sampler $end
$scope module i1 $end
$var wire 1 ( gnd $end
$var wire 1 ) vcc $end
$var wire 1 * unknown $end
$var tri1 1 + devclrn $end
$var tri1 1 , devpor $end
$var tri1 1 - devoe $end
$var wire 1 . q[0]~output_o $end
$var wire 1 / q[1]~output_o $end
$var wire 1 0 q[2]~output_o $end
$var wire 1 1 q[3]~output_o $end
$var wire 1 2 clk~input_o $end
$var wire 1 3 clk~inputclkctrl_outclk $end
$var wire 1 4 sin~input_o $end
$var wire 1 5 q[0]~reg0feeder_combout $end
$var wire 1 6 q[0]~reg0_q $end
$var wire 1 7 q[1]~reg0feeder_combout $end
$var wire 1 8 q[1]~reg0_q $end
$var wire 1 9 q[2]~reg0feeder_combout $end
$var wire 1 : q[2]~reg0_q $end
$var wire 1 ; q[3]~reg0feeder_combout $end
$var wire 1 < q[3]~reg0_q $end
$upscope $end
$upscope $end
$enddefinitions $end
#0
$dumpvars
1!
1"
x&
x%
x$
x#
x'
0(
1)
x*
1+
1,
1-
x.
x/
x0
x1
12
x3
14
x5
06
x7
08
x9
0:
x;
0<
$end
#453
13
#497
07
09
#498
0;
#3503
01
0#
#3535
0/
0%
#3726
0.
0&
#3751
15
#3840
00
0$
#160000
0"
0'
#160758
04
#164777
05
#180000
1"
1'
#180628
14
#184379
15
#200000
0"
0'
#200758
04
#204777
05
#220000
1"
1'
#220628
14
#224379
15
#230000
0!
0'
#230737
02
#231175
03
#240000
0"
1'
#240758
04
#244777
05
#260000
1!
1"
0'
#260607
12
#260628
14
#261060
13
#264379
15
#280000
0"
1'
#280758
04
#284777
05
#290000
0!
1"
0'
#290628
14
#290737
02
#291175
03
#294379
15
#320000
1!
1'
#320607
12
#321060
13
#322950
16
#323386
17
#326764
1.
1&
#350000
0!
0'
#350737
02
#351175
03
#380000
1!
1'
#380607
12
#381060
13
#382950
18
#383387
19
#386563
1/
1%
#470000
0"
0'
#470758
04
#474777
05
#500000
1"
1'
#500628
14
#504379
15
#530000
0"
0'
#530758
04
#534777
05
#560000
1"
1'
#560628
14
#564379
15
#650000
0!
0"
0'
#650737
02
#650758
04
#651175
03
#654777
05
#670000
1!
1'
#670607
12
#671060
13
#672950
06
1:
#673388
1;
#673447
07
#676676
0.
0&
#676879
10
1$
#690000
0!
0'
#690737
02
#691175
03
#710000
1"
1!
1'
#710607
12
#710628
14
#711060
13
#712950
08
1<
#713447
09
#714379
15
#716485
0/
0%
#716523
11
1#
#730000
0"
0!
0'
#730737
02
#730758
04
#731175
03
#734777
05
#740000
1"
1'
#740628
14
#744379
15
#750000
1!
0'
#750607
12
#751060
13
#752950
16
0:
#753386
17
#753448
0;
#756764
1.
1&
#756790
00
0$
#790000
0"
1'
#790758
04
#794777
05
#800000
1"
0'
#800628
14
#804379
15
#810000
0"
1'
#810758
04
#814777
05
#815000
1"
0'
#815628
14
#819379
15
#825000
0"
1'
#825758
04
#829777
05
#830000
1"
0'
#830628
14
#834379
15
#835000
0"
1'
#835758
04
#839777
05
#845000
1"
0'
#845628
14
#849379
15
#865000
0"
1'
#865758
04
#869777
05
#870000
1"
0'
#870628
14
#874379
15
#885000
0"
1'
#885758
04
#889777
05
#890000
1"
0'
#890628
14
#894379
15
#905000
0"
1'
#905758
04
#909777
05
#910000
1"
0'
#910628
14
#914379
15
#915000
0"
1'
#915758
04
#919777
05
#935000
1"
0'
#935628
14
#939379
15
#950000
0"
1'
#950758
04
#954777
05
#965000
1"
0'
#965628
14
#969379
15
